{
	"info": {
		"_postman_id": "f30c4b7a-7b97-403d-be4b-d69ad18b759a",
		"name": "Kode Giri",
		"schema": "https://schema.getpostman.com/json/collection/v2.1.0/collection.json"
	},
	"item": [
		{
			"name": "Perusahaan",
			"item": [
				{
					"name": "Perusahaan Add Data",
					"request": {
						"method": "POST",
						"header": [
							{
								"key": "Authorization",
								"value": "55a54008ad1ba589aa210d2629c1df41",
								"type": "default"
							}
						],
						"body": {
							"mode": "urlencoded",
							"urlencoded": [
								{
									"key": "Kode",
									"value": "ZAT676",
									"type": "default"
								},
								{
									"key": "Nama",
									"value": "PT Wanita Ceria",
									"type": "default"
								}
							]
						},
						"url": {
							"raw": "{{base}}/corp/add",
							"host": [
								"{{base}}"
							],
							"path": [
								"corp",
								"add"
							]
						}
					},
					"response": []
				},
				{
					"name": "Perusahaan Get Data",
					"request": {
						"method": "GET",
						"header": [
							{
								"key": "Authorization",
								"value": "55a54008ad1ba589aa210d2629c1df41",
								"type": "default"
							}
						],
						"url": {
							"raw": "{{base}}/corp/data",
							"host": [
								"{{base}}"
							],
							"path": [
								"corp",
								"data"
							]
						}
					},
					"response": []
				}
			]
		},
		{
			"name": "Barang",
			"item": [
				{
					"name": "Barang Add Data",
					"request": {
						"method": "POST",
						"header": [
							{
								"key": "Authorization",
								"value": "55a54008ad1ba589aa210d2629c1df41",
								"type": "default"
							}
						],
						"body": {
							"mode": "urlencoded",
							"urlencoded": [
								{
									"key": "Nama",
									"value": "pensil",
									"type": "default"
								},
								{
									"key": "Harga",
									"value": "3000",
									"type": "default"
								},
								{
									"key": "Stok",
									"value": "31",
									"type": "default"
								}
							]
						},
						"url": {
							"raw": "{{base}}/items/add",
							"host": [
								"{{base}}"
							],
							"path": [
								"items",
								"add"
							]
						}
					},
					"response": []
				},
				{
					"name": "Barang Get Data",
					"request": {
						"method": "GET",
						"header": [
							{
								"key": "Authorization",
								"value": "55a54008ad1ba589aa210d2629c1df41",
								"type": "default"
							}
						],
						"url": {
							"raw": "{{base}}/items/data",
							"host": [
								"{{base}}"
							],
							"path": [
								"items",
								"data"
							]
						}
					},
					"response": []
				}
			]
		},
		{
			"name": "Transaksi",
			"item": [
				{
					"name": "Transaksi Add Data",
					"request": {
						"method": "POST",
						"header": [
							{
								"key": "Authorization",
								"value": "55a54008ad1ba589aa210d2629c1df41",
								"type": "default"
							}
						],
						"body": {
							"mode": "urlencoded",
							"urlencoded": [
								{
									"key": "Tanggal",
									"value": "1990-01-02",
									"type": "default"
								},
								{
									"key": "Perusahaan",
									"value": "1",
									"type": "default"
								},
								{
									"key": "Barang",
									"value": "2",
									"type": "default"
								},
								{
									"key": "Jumlah",
									"value": "5",
									"type": "default"
								}
							]
						},
						"url": {
							"raw": "{{base}}/trans/add",
							"host": [
								"{{base}}"
							],
							"path": [
								"trans",
								"add"
							]
						}
					},
					"response": []
				},
				{
					"name": "Transaksi Get Data",
					"request": {
						"method": "GET",
						"header": [
							{
								"key": "Authorization",
								"value": "55a54008ad1ba589aa210d2629c1df41",
								"type": "default"
							}
						],
						"url": {
							"raw": "{{base}}/trans/data",
							"host": [
								"{{base}}"
							],
							"path": [
								"trans",
								"data"
							]
						}
					},
					"response": []
				},
				{
					"name": "Transaksi Export",
					"request": {
						"method": "GET",
						"header": [],
						"url": {
							"raw": "{{base}}/trans/export",
							"host": [
								"{{base}}"
							],
							"path": [
								"trans",
								"export"
							]
						}
					},
					"response": []
				}
			]
		},
		{
			"name": "User Register",
			"request": {
				"method": "POST",
				"header": [],
				"body": {
					"mode": "urlencoded",
					"urlencoded": [
						{
							"key": "Name",
							"value": "HibiscusHT",
							"type": "default"
						},
						{
							"key": "Username",
							"value": "tes@email.com",
							"type": "default"
						},
						{
							"key": "Password",
							"value": "logmein",
							"type": "default"
						}
					]
				},
				"url": {
					"raw": "{{base}}/users/register",
					"host": [
						"{{base}}"
					],
					"path": [
						"users",
						"register"
					]
				}
			},
			"response": []
		},
		{
			"name": "User Login",
			"request": {
				"method": "POST",
				"header": [],
				"body": {
					"mode": "urlencoded",
					"urlencoded": [
						{
							"key": "Username",
							"value": "tes@email.com",
							"type": "default"
						},
						{
							"key": "Password",
							"value": "logmein",
							"type": "default"
						}
					]
				},
				"url": {
					"raw": "{{base}}/users/login",
					"host": [
						"{{base}}"
					],
					"path": [
						"users",
						"login"
					]
				}
			},
			"response": []
		}
	]
}